1 Italian
2 English
3 Italian
4 French
5 French
6 English
7 English
8 English
9 French
10 French
11 English
12 Italian
13 French
14 English
15 French
16 English
17 French
18 French
19 Italian
20 English
21 Italian
22 French
23 Italian
24 French
25 Italian
26 English
27 English
28 English
29 English
30 English
31 English
32 English
33 English
34 French
35 French
36 Italian
37 French
38 English
39 French
40 Italian
41 Italian
42 French
43 Italian
44 English
45 French
46 Italian
47 French
48 French
49 French
50 Italian
51 Italian
52 Italian
53 Italian
54 French
55 Italian
56 Italian
57 Italian
58 English
59 French
60 French
61 Italian
62 French
63 English
64 Italian
65 Italian
66 French
67 French
68 English
69 Italian
70 Italian
71 English
72 Italian
73 English
74 English
75 English
76 English
77 English
78 Italian
79 Italian
80 Italian
81 Italian
82 English
83 Italian
84 English
85 Italian
86 English
87 French
88 English
89 English
90 French
91 Italian
92 Italian
93 French
94 French
95 Italian
96 Italian
97 Italian
98 Italian
99 French
100 English
101 French
102 Italian
103 French
104 English
105 French
106 French
107 French
108 French
109 French
110 French
111 French
112 French
113 French
114 English
115 French
116 English
117 Italian
118 Italian
119 Italian
120 Italian
121 Italian
122 Italian
123 English
124 English
125 English
126 French
127 Italian
128 English
129 Italian
130 Italian
131 French
132 French
133 French
134 English
135 Italian
136 French
137 English
138 French
139 French
140 French
141 Italian
142 English
143 English
144 French
145 Italian
146 French
147 French
148 Italian
149 Italian
150 French
151 Italian
152 English
153 English
154 French
155 Italian
156 English
157 French
158 French
159 Italian
160 French
161 French
162 English
163 English
164 French
165 English
166 English
167 French
168 Italian
169 Italian
170 English
171 Italian
172 Italian
173 French
174 English
175 Italian
176 French
177 Italian
178 English
179 French
180 English
181 Italian
182 French
183 French
184 Italian
185 French
186 Italian
187 Italian
188 French
189 French
190 Italian
191 French
192 English
193 French
194 English
195 French
196 English
197 French
198 French
199 Italian
200 Italian
201 English
202 French
203 English
204 Italian
205 French
206 English
207 English
208 French
209 English
210 French
211 Italian
212 French
213 French
214 Italian
215 English
216 English
217 Italian
218 French
219 French
220 English
221 French
222 English
223 Italian
224 English
225 Italian
226 Italian
227 Italian
228 French
229 Italian
230 English
231 English
232 Italian
233 English
234 Italian
235 French
236 English
237 English
238 Italian
239 French
240 French
241 French
242 Italian
243 English
244 Italian
245 English
246 Italian
247 Italian
248 Italian
249 English
250 English
251 English
252 French
253 English
254 Italian
255 English
256 English
257 Italian
258 Italian
259 Italian
260 English
261 French
262 Italian
263 Italian
264 French
265 English
266 French
267 French
268 Italian
269 English
270 French
271 English
272 English
273 English
274 English
275 Italian
276 French
277 Italian
278 English
279 French
280 French
281 English
282 English
283 French
284 Italian
285 French
286 French
287 English
288 French
289 Italian
290 Italian
291 French
292 French
293 French
294 Italian
295 French
296 French
297 Italian
298 Italian
299 French
300 English
