Terminos mas frecuentes:
Estados Unidos 9
Von Wernich 5
Casa Blanca 5
Puerto Rico 4
Las Vegas 4
Capital Federal 3
Los Pumas 3
Buenos Aires 3
Puerto Madero 3
Karl Rove 3

Terminos menos frecuentes:
Paolo Quinteros 1
Federico Kammerichs 1
Diego Lo Grippo 1
Guillermo Narvarte 1
Manuel Alvarez 1
Tuto Marchand 1
Diego Grippo 1
Urquiza
Las 1
Asamblea Permanente 1
Felipe Vega Terra 1
