Terminos mas frecuentes:
del 4518
que 4501
para 2801
universidad 2438
por 2148
con 2053
una 1617
nacion 1459
ciencia 1428
facultad 1393

Terminos menos frecuentes:
target 1
investigacióntd 1
166332 1
mendozaargentina 1
4799873665551871970request 1
4799873665552473259request 1
4799873665552473571request 1
4799873665552372256request 1
4799873665552372264request 1
4799873665552372272 1
