1 1
2 2
3 3
4 4
5 5
6 6
7 7
8 8
9 9
10 10
11 10
12 10
13 10
14 10
15 11
16 12
17 13
18 14
19 15
20 16
21 16
22 16
23 16
24 17
25 18
26 19
27 20
28 21
29 22
30 23
31 23
32 24
33 25
34 25
35 25
36 26
37 26
38 27
39 27
40 28
41 28
42 29
43 29
44 30
45 30
46 31
47 32
48 32
49 33
50 33
51 33
52 33
53 33
54 34
55 35
56 36
57 37
58 38
59 39
60 40
61 40
62 41
63 42
64 43
65 44
66 44
67 45
68 46
69 47
70 48
71 48
72 49
73 49
74 49
75 50
76 51
77 52
78 53
79 54
80 55
81 55
82 56
83 57
84 57
85 57
86 58
87 58
88 59
89 59
90 60
91 60
92 61
93 61
94 62
95 62
96 63
97 63
98 64
99 64
100 65
101 66
102 66
103 66
104 66
105 67
106 67
107 68
108 68
109 68
110 69
111 70
112 70
113 71
114 72
115 73
116 73
117 74
118 75
119 75
120 76
121 76
122 76
123 76
124 76
125 77
126 77
127 78
128 78
129 78
130 78
131 78
132 78
133 79
134 79
135 80
136 80
137 80
138 80
139 81
140 81
141 81
142 81
143 81
144 82
145 83
146 83
147 84
148 85
149 85
150 85
151 85
152 85
153 86
154 86
155 86
156 86
157 86
158 86
159 86
160 86
161 86
162 86
163 87
164 87
165 88
166 88
167 88
168 88
169 88
170 88
171 88
172 88
173 88
174 88
175 88
176 89
177 89
178 89
179 89
180 89
181 89
182 89
183 89
184 89
185 89
186 89
187 89
188 89
189 89
190 89
191 89
192 89
193 89
194 89
195 89
196 89
197 89
198 89
199 89
200 89
201 89
202 89
203 89
204 89
205 89
206 89
207 89
208 89
209 89
210 89
211 89
212 89
213 89
214 89
215 89
216 89
217 89
218 89
219 89
220 89
221 89
222 89
223 89
224 89
225 89
226 89
227 89
228 89
229 89
230 89
231 89
232 89
233 89
234 89
235 89
236 89
237 89
238 89
239 89
240 89
241 89
242 89
243 89
244 89
245 90
246 90
247 90
248 90
249 91
250 92
251 93
252 93
253 93
254 93
255 93
256 93
257 93
258 93
